<svg width="74" height="74" viewBox="0 0 74 74" fill="none" xmlns="http://www.w3.org/2000/svg">
<circle cx="37" cy="37" r="37" fill="#E5F1FF"/>
<path opacity="0.3" d="M47.7503 38.9167C44.9199 38.9167 42.6253 36.6221 42.6253 33.7917C42.6253 30.9612 44.9199 28.6667 47.7503 28.6667C50.5808 28.6667 52.8753 30.9612 52.8753 33.7917C52.8753 36.6221 50.5808 38.9167 47.7503 38.9167ZM32.3753 33.7917C28.6014 33.7917 25.542 30.7323 25.542 26.9583C25.542 23.1844 28.6014 20.125 32.3753 20.125C36.1493 20.125 39.2087 23.1844 39.2087 26.9583C39.2087 30.7323 36.1493 33.7917 32.3753 33.7917Z" fill="#377DFF"/>
<path d="M47.0687 40.6267C52.8882 40.6903 57.6398 43.6326 57.9974 49.8506C58.0118 50.1011 57.9974 50.8756 57.0706 50.8756H50.4833C50.4833 47.0303 49.2128 43.4817 47.0687 40.6267ZM17.0011 49.5076C17.6633 41.3543 24.2808 37.209 32.3465 37.209C40.5258 37.209 47.2458 41.1265 47.7464 49.509C47.7664 49.8429 47.7464 50.8756 46.4631 50.8756C40.1328 50.8756 30.726 50.8756 18.2428 50.8756C17.8144 50.8756 16.965 49.9517 17.0011 49.5076Z" fill="#377DFF"/>
</svg>
