<svg width="81" height="74" viewBox="0 0 81 74" fill="none" xmlns="http://www.w3.org/2000/svg">
<ellipse cx="40.3512" cy="37" rx="40.3512" ry="37" fill="#EAFAF3"/>
<g clip-path="url(#clip0_1501_38130)">
<path opacity="0.3" fill-rule="evenodd" clip-rule="evenodd" d="M23.6348 37.3841L42.442 40.8332V21.7852C50.6908 22.7283 57.0739 29.1806 57.0739 36.9999C57.0739 45.4682 49.5871 52.3332 40.3517 52.3332C31.2565 52.3332 23.8572 45.6749 23.6348 37.3841Z" fill="#2DCA8C"/>
<path fill-rule="evenodd" clip-rule="evenodd" d="M21.665 33.1898C22.6824 25.6149 29.7247 19.75 38.2609 19.75V36.2333L21.665 33.1898Z" fill="#2DCA8C"/>
</g>
<defs>
<clipPath id="clip0_1501_38130">
<rect width="50.1664" height="46" fill="white" transform="translate(15.2676 14)"/>
</clipPath>
</defs>
</svg>
